Traffic_Lights/Behavioral/simulation/qsim/Mealy.msim.vcd
$comment
	File created using the following command:
		vcd file Mealy.msim.vcd -direction
$end
$date
	Thu Oct 13 11:25:29 2022
$end
$version
	ModelSim Version 10.1d
$end
$timescale
	1ps
$end
$scope module traffic_vlg_vec_tst $end
$var reg 1 ! RST_N $end
$var reg 1 " clk $end
$var wire 1 # _time [5] $end
$var wire 1 $ _time [4] $end
$var wire 1 % _time [3] $end
$var wire 1 & _time [2] $end
$var wire 1 ' _time [1] $end
$var wire 1 ( _time [0] $end
$var wire 1 ) g1 $end
$var wire 1 * g2 $end
$var wire 1 + next_state [1] $end
$var wire 1 , next_state [0] $end
$var wire 1 - r1 $end
$var wire 1 . r2 $end
$var wire 1 / state [1] $end
$var wire 1 0 state [0] $end
$var wire 1 1 y1 $end
$var wire 1 2 y2 $end
$var wire 1 3 sampler $end
$scope module i1 $end
$var wire 1 4 gnd $end
$var wire 1 5 vcc $end
$var wire 1 6 unknown $end
$var tri1 1 7 devclrn $end
$var tri1 1 8 devpor $end
$var tri1 1 9 devoe $end
$var wire 1 : Add0~1_combout $end
$var wire 1 ; Add0~2_combout $end
$var wire 1 < Add0~3_combout $end
$var wire 1 = Add0~4_combout $end
$var wire 1 > Add0~5_combout $end
$var wire 1 ? clk~combout $end
$var wire 1 @ r1~0_combout $end
$var wire 1 A r1~reg0_regout $end
$var wire 1 B Equal3~0_combout $end
$var wire 1 C _time~5_combout $end
$var wire 1 D _time[5]~reg0_regout $end
$var wire 1 E _time~2_combout $end
$var wire 1 F _time[2]~reg0_regout $end
$var wire 1 G _time~1_combout $end
$var wire 1 H _time[1]~reg0_regout $end
$var wire 1 I Equal0~0_combout $end
$var wire 1 J Equal0~1_combout $end
$var wire 1 K Equal1~0_combout $end
$var wire 1 L Equal4~0_combout $end
$var wire 1 M _time~0_combout $end
$var wire 1 N _time[0]~reg0_regout $end
$var wire 1 O Add0~0_combout $end
$var wire 1 P Mux1~0_combout $end
$var wire 1 Q Mux1~1_combout $end
$var wire 1 R Mux1~2_combout $end
$var wire 1 S next_state[0]~reg0_regout $end
$var wire 1 T RST_N~combout $end
$var wire 1 U state[0]~reg0_regout $end
$var wire 1 V Mux0~0_combout $end
$var wire 1 W next_state[1]~reg0_regout $end
$var wire 1 X state[1]~reg0_regout $end
$var wire 1 Y r2~reg0_regout $end
$var wire 1 Z Decoder0~0_combout $end
$var wire 1 [ y1~reg0_regout $end
$var wire 1 \ Decoder0~1_combout $end
$var wire 1 ] y2~reg0_regout $end
$var wire 1 ^ Decoder0~2_combout $end
$var wire 1 _ g1~reg0_regout $end
$var wire 1 ` Decoder0~3_combout $end
$var wire 1 a g2~reg0_regout $end
$var wire 1 b _time~3_combout $end
$var wire 1 c _time[3]~reg0_regout $end
$var wire 1 d _time~4_combout $end
$var wire 1 e _time[4]~reg0_regout $end
$upscope $end
$upscope $end
$enddefinitions $end
#0
$dumpvars
1!
0"
0(
0'
0&
0%
0$
0#
0)
0*
0,
0+
0-
0.
00
0/
01
02
x3
04
15
x6
17
18
19
0:
0;
0<
0=
0>
0?
1@
0A
0B
0C
0D
0E
0F
0G
0H
0I
0J
0K
0L
1M
0N
0O
0P
0Q
0R
0S
1T
0U
0V
0W
0X
0Y
0Z
0[
0\
0]
0^
0_
1`
0a
0b
0c
0d
0e
$end
#10000
1"
1?
03
#20000
0"
0?
13
1A
1N
1a
1P
0M
1I
1:
1-
1(
1*
1J
1G
1K
#30000
1"
1?
03
#40000
0"
0?
13
1H
0N
0P
1M
0K
1B
1'
0(
#50000
1"
1?
03
#60000
0"
0?
13
1N
1P
0M
1K
0I
0B
1;
0:
1(
0J
1E
0G
0K
#70000
1"
1?
03
#80000
0"
0?
13
1F
0H
0N
0P
1M
1&
0'
0(
#90000
1"
1?
03
#100000
0"
0?
13
1N
1P
0M
1I
1:
1(
1G
#110000
1"
1?
03
#120000
0"
0?
13
1H
0N
0P
1M
1'
0(
#130000
1"
1?
03
#140000
0"
0?
13
1N
1P
1O
0M
0I
0;
0:
1(
1b
0E
0G
#150000
1"
1?
03
#160000
0"
0?
13
0F
0H
0N
1c
0P
1M
0&
0'
0(
1%
#170000
1"
1?
03
#180000
0"
0?
13
1N
1P
0M
1I
1:
1(
1J
1G
1Q
1R
0b
0G
#190000
1"
1?
03
#200000
0"
0?
13
0N
1S
0c
0P
0O
0I
0:
0(
1,
0%
0Q
1B
0J
0R
0B
1M
#210000
1"
1?
03
1U
0`
1\
1R
0M
10
1M
#220000
0"
0?
13
1N
1]
0a
0M
1I
1:
1(
12
0*
1J
1G
1K
1V
0R
1L
0G
#230000
1"
1?
03
#240000
0"
0?
13
0N
0S
1W
0K
0I
1B
0:
0(
0,
1+
0V
1R
0L
0J
1M
0B
#250000
1"
1?
03
1X
0U
1^
0\
1V
1P
0@
0R
0M
1/
00
1M
#260000
0"
0?
13
0A
1N
1Y
0]
1_
0P
0M
1I
1:
0-
1(
1.
02
1)
1J
1G
1K
#270000
1"
1?
03
#280000
0"
0?
13
1H
0N
1P
1M
0K
1B
1'
0(
#290000
1"
1?
03
#300000
0"
0?
13
1N
0P
0M
1K
0I
0B
1;
0:
1(
0J
1E
0G
0K
#310000
1"
1?
03
#320000
0"
0?
13
1F
0H
0N
1P
1M
1&
0'
0(
#330000
1"
1?
03
#340000
0"
0?
13
1N
0P
0M
1I
1:
1(
1G
#350000
1"
1?
03
#360000
0"
0?
13
1H
0N
1P
1M
1'
0(
#370000
1"
1?
03
#380000
0"
0?
13
1N
0P
1O
0M
0I
0;
0:
1(
1b
0E
0G
#390000
1"
1?
03
#400000
0"
0?
13
0F
0H
0N
1c
1P
1M
0&
0'
0(
1%
#410000
1"
1?
03
#420000
0"
0?
13
1N
0P
0M
1I
1:
1(
1J
1G
#430000
1"
1?
03
#440000
0"
0?
13
1H
0N
1P
1M
1'
0(
1Q
1R
0b
0M
0G
#450000
1"
1?
03
#460000
0"
0?
13
0H
1S
0c
0O
0I
0:
0'
1,
0%
0Q
1B
0J
0R
0B
1M
#470000
1"
1?
03
1U
0^
1Z
1R
1Q
0M
10
1M
#480000
0"
0?
13
1N
1[
0_
0M
1I
1:
1(
11
0)
1J
1G
1K
#490000
1"
1?
03
#500000
0"
0?
13
1H
0N
1M
0K
1B
1'
0(
0V
0R
1L
0M
0G
#510000
1"
1?
03
#520000
0"
0?
13
0H
0S
0W
0I
0:
0'
0,
0+
0J
0B
1V
1R
0L
1M
#530000
1"
1?
03
0X
0U
1`
0Z
0V
0P
1@
0Q
0M
0/
00
0R
1M
#540000
0"
0?
13
1A
1N
0Y
0[
1a
1P
0M
1I
1:
1-
1(
0.
01
1*
1J
1G
1K
#550000
1"
1?
03
#560000
0"
0?
13
1H
0N
0P
1M
0K
1B
1'
0(
#570000
1"
1?
03
#580000
0"
0?
13
1N
1P
0M
1K
0I
0B
1;
0:
1(
0J
1E
0G
0K
#590000
1"
1?
03
#600000
0"
0?
13
1F
0H
0N
0P
1M
1&
0'
0(
#610000
1"
1?
03
#620000
0"
0?
13
1N
1P
0M
1I
1:
1(
1G
#630000
1"
1?
03
#640000
0"
0?
13
1H
0N
0P
1M
1'
0(
#650000
1"
1?
03
#660000
0"
0?
13
1N
1P
1O
0M
0I
0;
0:
1(
1b
0E
0G
#670000
1"
1?
03
#680000
0"
0?
13
0F
0H
0N
1c
0P
1M
0&
0'
0(
1%
#690000
1"
1?
03
#700000
0"
0?
13
1N
1P
0M
1I
1:
1(
1J
1G
1Q
1R
0b
0G
#710000
1"
1?
03
#720000
0"
0?
13
0N
1S
0c
0P
0O
0I
0:
0(
1,
0%
0Q
1B
0J
0R
0B
1M
#730000
1"
1?
03
1U
0`
1\
1R
0M
10
1M
#740000
0"
0?
13
1N
1]
0a
0M
1I
1:
1(
12
0*
1J
1G
1K
1V
0R
1L
0G
#750000
1"
1?
03
#760000
0"
0?
13
0N
0S
1W
0K
0I
1B
0:
0(
0,
1+
0V
1R
0L
0J
1M
0B
#770000
1"
1?
03
1X
0U
1^
0\
1V
1P
0@
0R
0M
1/
00
1M
#780000
0"
0?
13
0A
1N
1Y
0]
1_
0P
0M
1I
1:
0-
1(
1.
02
1)
1J
1G
1K
#790000
1"
1?
03
#800000
0"
0?
13
1H
0N
1P
1M
0K
1B
1'
0(
#810000
1"
1?
03
#820000
0"
0?
13
1N
0P
0M
1K
0I
0B
1;
0:
1(
0J
1E
0G
0K
#830000
1"
1?
03
#840000
0"
0?
13
1F
0H
0N
1P
1M
1&
0'
0(
#850000
1"
1?
03
#860000
0"
0?
13
1N
0P
0M
1I
1:
1(
1G
#870000
1"
1?
03
#880000
0"
0?
13
1H
0N
1P
1M
1'
0(
#890000
1"
1?
03
#900000
0"
0?
13
1N
0P
1O
0M
0I
0;
0:
1(
1b
0E
0G
#910000
1"
1?
03
#920000
0"
0?
13
0F
0H
0N
1c
1P
1M
0&
0'
0(
1%
#930000
1"
1?
03
#940000
0"
0?
13
1N
0P
0M
1I
1:
1(
1J
1G
#950000
1"
1?
03
#960000
0"
0?
13
1H
0N
1P
1M
1'
0(
1Q
1R
0b
0M
0G
#970000
1"
1?
03
#980000
0"
0?
13
0H
1S
0c
0O
0I
0:
0'
1,
0%
0Q
1B
0J
0R
0B
1M
#990000
1"
1?
03
1U
0^
1Z
1R
1Q
0M
10
1M
