Traffic_Lights/Structural/simulation/qsim/Traffic.msim.vcd
$comment
	File created using the following command:
		vcd file Traffic.msim.vcd -direction
$end
$date
	Fri Oct 14 11:53:49 2022
$end
$version
	ModelSim Version 10.1d
$end
$timescale
	1ps
$end
$scope module traffic_vlg_vec_tst $end
$var reg 1 ! clk $end
$var reg 1 " rst_n $end
$var reg 1 # start $end
$var wire 1 $ l1 [1] $end
$var wire 1 % l1 [0] $end
$var wire 1 & l2 [1] $end
$var wire 1 ' l2 [0] $end
$var wire 1 ( sampler $end
$scope module i1 $end
$var wire 1 ) gnd $end
$var wire 1 * vcc $end
$var wire 1 + unknown $end
$var tri1 1 , devclrn $end
$var tri1 1 - devpor $end
$var tri1 1 . devoe $end
$var wire 1 / inpp|_time|norb~0_combout $end
$var wire 1 0 inpp|ord0~0_combout $end
$var wire 1 1 inpp|ord0~1_combout $end
$var wire 1 2 inpp|y2~combout $end
$var wire 1 3 rst_n~combout $end
$var wire 1 4 start~combout $end
$var wire 1 5 inpp|_time|count|d_ff0[0]|nand1~combout $end
$var wire 1 6 inpp|_time|count|d_ff0[1]|nand1~combout $end
$var wire 1 7 inpp|_time|count|d_ff0[1]|nand3~0_combout $end
$var wire 1 8 clk~combout $end
$var wire 1 9 inpp|_time|count|d_ff0[1]|nand1~0_combout $end
$var wire 1 : inpp|_time|count|d_ff0[1]|nand5~combout $end
$var wire 1 ; inpp|_time|count|haa[3]|_xor~combout $end
$var wire 1 < inpp|_time|count|d_ff0[3]|nand1~combout $end
$var wire 1 = inpp|_time|count|d_ff0[3]|nand3~0_combout $end
$var wire 1 > inpp|_time|count|d_ff0[3]|nand1~0_combout $end
$var wire 1 ? inpp|_time|count|d_ff0[3]|nand5~combout $end
$var wire 1 @ inpp|andd16~0_combout $end
$var wire 1 A inpp|andd16~combout $end
$var wire 1 B inpp|_time|norc~combout $end
$var wire 1 C inpp|d_ff_[1]|nand1~combout $end
$var wire 1 D inpp|d_ff_[1]|nand3~0_combout $end
$var wire 1 E inpp|d_ff_[1]|nand1~0_combout $end
$var wire 1 F inpp|d_ff_[1]|nand5~combout $end
$var wire 1 G inpp|ord1~0_combout $end
$var wire 1 H inpp|resetcount|nand1~1_combout $end
$var wire 1 I inpp|resetcount|nand1~2_combout $end
$var wire 1 J inpp|resetcount|nand3~0_combout $end
$var wire 1 K inpp|resetcount|nand1~0_combout $end
$var wire 1 L inpp|resetcount|nand5~combout $end
$var wire 1 M inpp|_time|count|d_ff0[0]|nand3~0_combout $end
$var wire 1 N inpp|_time|count|d_ff0[0]|nand1~0_combout $end
$var wire 1 O inpp|_time|count|d_ff0[0]|nand5~combout $end
$var wire 1 P inpp|_time|count|d_ff0[2]|nand1~combout $end
$var wire 1 Q inpp|_time|count|d_ff0[2]|nand3~0_combout $end
$var wire 1 R inpp|_time|count|d_ff0[2]|nand1~0_combout $end
$var wire 1 S inpp|_time|count|d_ff0[2]|nand5~combout $end
$var wire 1 T inpp|_time|count|haa[3]|_and~combout $end
$var wire 1 U inpp|_time|count|d_ff0[4]|nand1~combout $end
$var wire 1 V inpp|_time|count|d_ff0[4]|nand3~0_combout $end
$var wire 1 W inpp|_time|count|d_ff0[4]|nand1~0_combout $end
$var wire 1 X inpp|_time|count|d_ff0[4]|nand5~combout $end
$var wire 1 Y inpp|_time|count|d_ff0[5]|nand1~combout $end
$var wire 1 Z inpp|_time|count|d_ff0[5]|nand3~0_combout $end
$var wire 1 [ inpp|_time|count|d_ff0[5]|nand1~0_combout $end
$var wire 1 \ inpp|_time|count|d_ff0[5]|nand5~combout $end
$var wire 1 ] inpp|_time|count|haa[6]|_xor~combout $end
$var wire 1 ^ inpp|_time|count|d_ff0[6]|nand1~combout $end
$var wire 1 _ inpp|_time|count|d_ff0[6]|nand3~0_combout $end
$var wire 1 ` inpp|_time|count|d_ff0[6]|nand1~0_combout $end
$var wire 1 a inpp|_time|count|d_ff0[6]|nand5~combout $end
$var wire 1 b inpp|_time|count|haa[6]|_and~combout $end
$var wire 1 c inpp|_time|count|d_ff0[7]|nand1~combout $end
$var wire 1 d inpp|_time|count|d_ff0[7]|nand3~0_combout $end
$var wire 1 e inpp|_time|count|d_ff0[7]|nand1~0_combout $end
$var wire 1 f inpp|_time|count|d_ff0[7]|nand5~combout $end
$var wire 1 g inpp|_time|count|d_ff0[8]|nand1~combout $end
$var wire 1 h inpp|_time|count|d_ff0[8]|nand3~0_combout $end
$var wire 1 i inpp|_time|count|d_ff0[8]|nand1~0_combout $end
$var wire 1 j inpp|_time|count|d_ff0[8]|nand5~combout $end
$var wire 1 k inpp|_time|count|haa[9]|_xor~combout $end
$var wire 1 l inpp|_time|count|d_ff0[9]|nand1~combout $end
$var wire 1 m inpp|_time|count|d_ff0[9]|nand3~0_combout $end
$var wire 1 n inpp|_time|count|d_ff0[9]|nand1~0_combout $end
$var wire 1 o inpp|_time|count|d_ff0[9]|nand5~combout $end
$var wire 1 p inpp|_time|norb~1_combout $end
$var wire 1 q inpp|_time|count|haa[9]|_and~0_combout $end
$var wire 1 r inpp|_time|count|haa[9]|_and~combout $end
$var wire 1 s inpp|_time|count|d_ff0[10]|nand1~combout $end
$var wire 1 t inpp|_time|count|d_ff0[10]|nand3~0_combout $end
$var wire 1 u inpp|_time|count|d_ff0[10]|nand1~0_combout $end
$var wire 1 v inpp|_time|count|d_ff0[10]|nand5~combout $end
$var wire 1 w inpp|_time|count|d_ff0[11]|nand1~combout $end
$var wire 1 x inpp|_time|count|d_ff0[11]|nand3~0_combout $end
$var wire 1 y inpp|_time|count|d_ff0[11]|nand1~0_combout $end
$var wire 1 z inpp|_time|count|d_ff0[11]|nand5~combout $end
$var wire 1 { inpp|_time|count|haa[12]|_xor~combout $end
$var wire 1 | inpp|_time|count|d_ff0[12]|nand1~combout $end
$var wire 1 } inpp|_time|count|d_ff0[12]|nand3~0_combout $end
$var wire 1 ~ inpp|_time|count|d_ff0[12]|nand1~0_combout $end
$var wire 1 !! inpp|_time|count|d_ff0[12]|nand5~combout $end
$var wire 1 "! inpp|_time|count|haa[12]|_and~combout $end
$var wire 1 #! inpp|_time|count|d_ff0[13]|nand1~combout $end
$var wire 1 $! inpp|_time|count|d_ff0[13]|nand3~0_combout $end
$var wire 1 %! inpp|_time|count|d_ff0[13]|nand1~0_combout $end
$var wire 1 &! inpp|_time|count|d_ff0[13]|nand5~combout $end
$var wire 1 '! inpp|_time|norb~2_combout $end
$var wire 1 (! inpp|_time|count|d_ff0[14]|nand1~combout $end
$var wire 1 )! inpp|_time|count|d_ff0[14]|nand3~0_combout $end
$var wire 1 *! inpp|_time|count|d_ff0[14]|nand1~0_combout $end
$var wire 1 +! inpp|_time|count|d_ff0[14]|nand5~combout $end
$var wire 1 ,! inpp|_time|count|ha0|_xor~combout $end
$var wire 1 -! inpp|_time|count|d_ff0[15]|nand1~combout $end
$var wire 1 .! inpp|_time|count|d_ff0[15]|nand3~0_combout $end
$var wire 1 /! inpp|_time|count|d_ff0[15]|nand1~0_combout $end
$var wire 1 0! inpp|_time|count|d_ff0[15]|nand5~combout $end
$var wire 1 1! inpp|_time|norb~3_combout $end
$var wire 1 2! inpp|_time|norb~4_combout $end
$var wire 1 3! inpp|andd16~1_combout $end
$var wire 1 4! inpp|ord2~0_combout $end
$var wire 1 5! inpp|d_ff_[2]|nand1~combout $end
$var wire 1 6! inpp|d_ff_[2]|nand3~0_combout $end
$var wire 1 7! inpp|d_ff_[2]|nand1~0_combout $end
$var wire 1 8! inpp|d_ff_[2]|nand5~combout $end
$var wire 1 9! inpp|andd15~0_combout $end
$var wire 1 :! inpp|ord0~2_combout $end
$var wire 1 ;! inpp|d_ff_[0]|nand1~combout $end
$var wire 1 <! inpp|d_ff_[0]|nand3~0_combout $end
$var wire 1 =! inpp|d_ff_[0]|nand1~0_combout $end
$var wire 1 >! inpp|d_ff_[0]|nand5~combout $end
$var wire 1 ?! outpp|l10~0_combout $end
$var wire 1 @! outpp|l20~combout $end
$upscope $end
$upscope $end
$enddefinitions $end
#0
$dumpvars
1!
0"
1#
1%
1$
1'
1&
x(
0)
1*
x+
1,
1-
1.
0/
10
11
12
03
14
05
06
07
18
09
1:
0;
0<
0=
0>
1?
0@
0A
1B
0C
0D
0E
1F
0G
0H
0I
0J
0K
1L
0M
0N
1O
0P
0Q
0R
1S
1T
0U
0V
0W
1X
0Y
0Z
0[
1\
0]
0^
0_
0`
1a
1b
0c
0d
0e
1f
0g
0h
0i
1j
0k
0l
0m
0n
1o
1p
1q
1r
0s
0t
0u
1v
0w
0x
0y
1z
0{
0|
0}
0~
1!!
1"!
0#!
0$!
0%!
1&!
1'!
0(!
0)!
0*!
1+!
0,!
0-!
0.!
0/!
10!
11!
02!
03!
04!
05!
06!
07!
18!
09!
1:!
0;!
0<!
0=!
1>!
0?!
1@!
$end
#5000
0!
08
0(
#10000
1!
18
1(
#15000
0!
08
0(
#20000
1!
18
1(
#25000
0!
08
0(
#30000
1"
1!
13
18
1(
#35000
0!
08
0(
1=!
17!
1K
1E
1;!
1H
#40000
1!
18
1(
1<!
07!
0K
0E
0>!
0H
0@!
1?!
0$
0'
0%
#45000
0!
08
0(
0<!
17!
1K
1E
1H
1I
#50000
1!
18
1(
1<!
07!
1J
0E
0L
#55000
0!
08
0(
0<!
17!
1/!
1*!
1%!
1~
1y
1u
1n
1i
1e
1`
1[
1W
1R
1N
0J
1E
1>
19
15
#60000
1!
18
1(
1<!
07!
0/!
0*!
0%!
0~
0y
0u
0n
0i
0e
0`
0[
0W
0R
1M
1J
0E
0>
09
0O
05
#65000
0!
08
0(
0<!
17!
1/!
1*!
1%!
1~
1y
1u
1n
1i
1e
1`
1[
1W
1R
0M
0J
1E
1>
19
16
#70000
1!
18
1(
1<!
07!
0/!
0*!
0%!
0~
0y
0u
0n
0i
0e
0`
0[
0W
0R
0N
1J
0E
0>
17
1O
0:
#75000
0!
08
0(
0<!
17!
1/!
1*!
1%!
1~
1y
1u
1n
1i
1e
1`
1[
1W
1R
1N
0J
1E
1>
07
15
#80000
1!
18
1(
1<!
07!
0/!
0*!
0%!
0~
0y
0u
0n
0i
0e
0`
0[
0W
0R
1M
1J
0E
0>
17
0O
06
05
#85000
0!
08
0(
0<!
17!
1/!
1*!
1%!
1~
1y
1u
1n
1i
1e
1`
1[
1W
1R
0M
0J
1E
1>
07
1P
#90000
1!
18
1(
1<!
07!
0/!
0*!
0%!
0~
0y
0u
0n
0i
0e
0`
0[
0W
1Q
0N
1J
0E
0>
09
0S
1O
1:
#95000
0!
08
0(
0<!
17!
1/!
1*!
1%!
1~
1y
1u
1n
1i
1e
1`
1[
1W
0Q
1N
0J
1E
1>
19
15
#100000
1!
18
1(
1<!
07!
0/!
0*!
0%!
0~
0y
0u
0n
0i
0e
0`
0[
0W
1Q
1M
1J
0E
0>
09
0O
05
1/
12!
0B
#105000
0!
08
0(
0<!
17!
1/!
1*!
1%!
1~
1y
1u
1n
1i
1e
1`
1[
1W
0Q
0M
0J
1E
1>
19
16
#110000
1!
18
1(
1<!
07!
0/!
0*!
0%!
0~
0y
0u
0n
0i
0e
0`
0[
0W
1Q
0N
1J
0E
0>
17
1O
0:
0/
1B
02!
#115000
0!
08
0(
0<!
17!
1/!
1*!
1%!
1~
1y
1u
1n
1i
1e
1`
1[
1W
0Q
1N
0J
1E
1>
07
15
#120000
1!
18
1(
1<!
07!
0/!
0*!
0%!
0~
0y
0u
0n
0i
0e
0`
0[
0W
1Q
1M
1J
0E
0>
17
0O
0P
1;
06
05
1/
12!
#125000
0!
08
0(
0<!
17!
1/!
1*!
1%!
1~
1y
1u
1n
1i
1e
1`
1[
1W
0Q
0M
0J
1E
1>
07
1<
#130000
1!
18
1(
1<!
07!
0/!
0*!
0%!
0~
0y
0u
0n
0i
0e
0`
0[
0W
0R
0N
1J
0E
1=
09
1S
1O
0?
1:
0/
02!
#135000
0!
08
0(
0<!
17!
1/!
1*!
1%!
1~
1y
1u
1n
1i
1e
1`
1[
1W
1R
1N
0J
1E
0=
19
15
#140000
1!
18
1(
1<!
07!
0/!
0*!
0%!
0~
0y
0u
0n
0i
0e
0`
0[
0W
0R
1M
1J
0E
1=
09
0O
05
#145000
0!
08
0(
0<!
17!
1/!
1*!
1%!
1~
1y
1u
1n
1i
1e
1`
1[
1W
1R
0M
0J
1E
0=
19
16
#150000
1!
18
1(
1<!
07!
0/!
0*!
0%!
0~
0y
0u
0n
0i
0e
0`
0[
0W
0R
0N
1J
0E
1=
17
1O
0:
1@
#155000
0!
08
0(
0<!
17!
1/!
1*!
1%!
1~
1y
1u
1n
1i
1e
1`
1[
1W
1R
1N
0J
1E
0=
07
15
#160000
1!
18
1(
1<!
07!
0/!
0*!
0%!
0~
0y
0u
0n
0i
0e
0`
0[
0W
0R
1M
1J
0E
1=
17
0O
06
05
#165000
0!
08
0(
0<!
17!
1/!
1*!
1%!
1~
1y
1u
1n
1i
1e
1`
1[
1W
1R
0M
0J
1E
0=
07
1P
#170000
1!
18
1(
1<!
07!
0/!
0*!
0%!
0~
0y
0u
0n
0i
0e
0`
0[
0W
1Q
0N
1J
0E
1=
09
0S
1O
1:
0@
#175000
0!
08
0(
0<!
17!
1/!
1*!
1%!
1~
1y
1u
1n
1i
1e
1`
1[
1W
0Q
1N
0J
1E
0=
19
15
#180000
1!
18
1(
1<!
07!
0/!
0*!
0%!
0~
0y
0u
0n
0i
0e
0`
0[
0W
1Q
1M
1J
0E
1=
09
0O
05
1/
12!
#185000
0!
08
0(
0<!
17!
1/!
1*!
1%!
1~
1y
1u
1n
1i
1e
1`
1[
1W
0Q
0M
0J
1E
0=
19
16
#190000
1!
18
1(
1<!
07!
0/!
0*!
0%!
0~
0y
0u
0n
0i
0e
0`
0[
0W
1Q
0N
1J
0E
1=
17
1O
0:
0/
13!
1@
02!
1A
03!
0A
0H
1H
0I
1I
#195000
0!
08
0(
0<!
17!
1/!
1*!
1%!
1~
1y
1u
1n
1i
1e
1`
1[
1W
0Q
1N
0J
1E
0=
07
15
#200000
1!
18
1(
1<!
07!
0/!
0*!
0%!
0~
0y
0u
0n
0i
0e
0`
0[
0W
1Q
1M
1J
0E
1=
17
0O
0T
0P
0;
06
05
1/
0<
12!
13!
1A
0H
0I
#205000
0!
08
0(
0<!
17!
1/!
1*!
1%!
1~
1y
1u
1n
1i
1e
1`
1[
1W
0Q
0M
0J
1E
0=
07
1U
1C
#210000
1!
18
1(
1<!
07!
0/!
0*!
0%!
0~
0y
0u
0n
0i
0e
0`
0[
1V
0R
0N
0K
1D
0>
09
0X
1S
1O
1L
0F
1?
1:
0U
0/
1T
0W
0V
0?!
1G
00
03!
0B
0@
02!
1X
01
0A
1%
1B
11
0:!
1:!
0;!
1;!
#215000
0!
08
0(
0<!
17!
1K
0D
1H
1I
#220000
1!
18
1(
1<!
07!
1J
1D
0L
#225000
0!
08
0(
0<!
17!
1/!
1*!
1%!
1~
1y
1u
1n
1i
1e
1`
1[
1W
1R
1N
0J
0D
1>
19
15
#230000
1!
18
1(
1<!
07!
0/!
0*!
0%!
0~
0y
0u
0n
0i
0e
0`
0[
0W
0R
1M
1J
1D
0>
09
0O
05
#235000
0!
08
0(
0<!
17!
1/!
1*!
1%!
1~
1y
1u
1n
1i
1e
1`
1[
1W
1R
0M
0J
0D
1>
19
16
#240000
1!
18
1(
1<!
07!
0/!
0*!
0%!
0~
0y
0u
0n
0i
0e
0`
0[
0W
0R
0N
1J
1D
0>
17
1O
0:
#245000
0!
08
0(
0<!
17!
1/!
1*!
1%!
1~
1y
1u
1n
1i
1e
1`
1[
1W
1R
1N
0J
0D
1>
07
15
#250000
1!
18
1(
1<!
07!
0/!
0*!
0%!
0~
0y
0u
0n
0i
0e
0`
0[
0W
0R
1M
1J
1D
0>
17
0O
06
05
#255000
0!
08
0(
0<!
17!
1/!
1*!
1%!
1~
1y
1u
1n
1i
1e
1`
1[
1W
1R
0M
0J
0D
1>
07
1P
#260000
1!
18
1(
1<!
07!
0/!
0*!
0%!
0~
0y
0u
0n
0i
0e
0`
0[
0W
1Q
0N
1J
1D
0>
09
0S
1O
1:
#265000
0!
08
0(
0<!
17!
1/!
1*!
1%!
1~
1y
1u
1n
1i
1e
1`
1[
1W
0Q
1N
0J
0D
1>
19
15
#270000
1!
18
1(
1<!
07!
0/!
0*!
0%!
0~
0y
0u
0n
0i
0e
0`
0[
0W
1Q
1M
1J
1D
0>
09
0O
05
1/
12!
0B
01
0:!
0;!
0I
#275000
0!
08
0(
0<!
17!
1/!
1*!
1%!
1~
1y
1u
1n
1i
1e
1`
1[
1W
0Q
0M
0J
0D
1>
19
16
#280000
1!
18
1(
0=!
07!
0/!
0*!
0%!
0~
0y
0u
0n
0i
0e
0`
0[
0W
1Q
0N
0K
1D
0>
17
1>!
1O
1L
0H
0:
1?!
19!
0/
0R
0Q
09
07
1B
1$
02!
1S
0P
1:
06
0%
0&
#285000
0!
08
0(
1=!
17!
1K
0D
1H
1I
#290000
1!
18
1(
0=!
07!
1J
1D
0L
#295000
0!
08
0(
1=!
17!
1/!
1*!
1%!
1~
1y
1u
1n
1i
1e
1`
1[
1W
1R
1N
0J
0D
1>
19
15
#300000
1!
18
1(
0=!
07!
0/!
0*!
0%!
0~
0y
0u
0n
0i
0e
0`
0[
0W
0R
1M
1J
1D
0>
09
0O
05
#305000
0!
08
0(
1=!
17!
1/!
1*!
1%!
1~
1y
1u
1n
1i
1e
1`
1[
1W
1R
0M
0J
0D
1>
19
16
#310000
1!
18
1(
0=!
07!
0/!
0*!
0%!
0~
0y
0u
0n
0i
0e
0`
0[
0W
0R
0N
1J
1D
0>
17
1O
0:
#315000
0!
08
0(
1=!
17!
1/!
1*!
1%!
1~
1y
1u
1n
1i
1e
1`
1[
1W
1R
1N
0J
0D
1>
07
15
#320000
1!
18
1(
0=!
07!
0/!
0*!
0%!
0~
0y
0u
0n
0i
0e
0`
0[
0W
0R
1M
1J
1D
0>
17
0O
06
05
#325000
0!
08
0(
1=!
17!
1/!
1*!
1%!
1~
1y
1u
1n
1i
1e
1`
1[
1W
1R
0M
0J
0D
1>
07
1P
#330000
1!
18
1(
0=!
07!
0/!
0*!
0%!
0~
0y
0u
0n
0i
0e
0`
0[
0W
1Q
0N
1J
1D
0>
09
0S
1O
1:
#335000
0!
08
0(
1=!
17!
1/!
1*!
1%!
1~
1y
1u
1n
1i
1e
1`
1[
1W
0Q
1N
0J
0D
1>
19
15
#340000
1!
18
1(
0=!
07!
0/!
0*!
0%!
0~
0y
0u
0n
0i
0e
0`
0[
0W
1Q
1M
1J
1D
0>
09
0O
05
1/
12!
0B
#345000
0!
08
0(
1=!
17!
1/!
1*!
1%!
1~
1y
1u
1n
1i
1e
1`
1[
1W
0Q
0M
0J
0D
1>
19
16
#350000
1!
18
1(
0=!
07!
0/!
0*!
0%!
0~
0y
0u
0n
0i
0e
0`
0[
0W
1Q
0N
1J
1D
0>
17
1O
0:
0/
1B
02!
#355000
0!
08
0(
1=!
17!
1/!
1*!
1%!
1~
1y
1u
1n
1i
1e
1`
1[
1W
0Q
1N
0J
0D
1>
07
15
#360000
1!
18
1(
0=!
07!
0/!
0*!
0%!
0~
0y
0u
0n
0i
0e
0`
0[
0W
1Q
1M
1J
1D
0>
17
0O
0P
1;
06
05
1/
12!
#365000
0!
08
0(
1=!
17!
1/!
1*!
1%!
1~
1y
1u
1n
1i
1e
1`
1[
1W
0Q
0M
0J
0D
1>
07
1<
#370000
1!
18
1(
0=!
07!
0/!
0*!
0%!
0~
0y
0u
0n
0i
0e
0`
0[
0W
0R
0N
1J
1D
1=
09
1S
1O
0?
1:
0/
02!
#375000
0!
08
0(
1=!
17!
1/!
1*!
1%!
1~
1y
1u
1n
1i
1e
1`
1[
1W
1R
1N
0J
0D
0=
19
15
#380000
1!
18
1(
0=!
07!
0/!
0*!
0%!
0~
0y
0u
0n
0i
0e
0`
0[
0W
0R
1M
1J
1D
1=
09
0O
05
#385000
0!
08
0(
1=!
17!
1/!
1*!
1%!
1~
1y
1u
1n
1i
1e
1`
1[
1W
1R
0M
0J
0D
0=
19
16
#390000
1!
18
1(
0=!
07!
0/!
0*!
0%!
0~
0y
0u
0n
0i
0e
0`
0[
0W
0R
0N
1J
1D
1=
17
1O
0:
1@
#395000
0!
08
0(
1=!
17!
1/!
1*!
1%!
1~
1y
1u
1n
1i
1e
1`
1[
1W
1R
1N
0J
0D
0=
07
15
#400000
1!
18
1(
0=!
07!
0/!
0*!
0%!
0~
0y
0u
0n
0i
0e
0`
0[
0W
0R
1M
1J
1D
1=
17
0O
06
05
#405000
0!
08
0(
1=!
17!
1/!
1*!
1%!
1~
1y
1u
1n
1i
1e
1`
1[
1W
1R
0M
0J
0D
0=
07
1P
#410000
1!
18
1(
0=!
07!
0/!
0*!
0%!
0~
0y
0u
0n
0i
0e
0`
0[
0W
1Q
0N
1J
1D
1=
09
0S
1O
1:
0@
#415000
0!
08
0(
1=!
17!
1/!
1*!
1%!
1~
1y
1u
1n
1i
1e
1`
1[
1W
0Q
1N
0J
0D
0=
19
15
#420000
1!
18
1(
0=!
07!
0/!
0*!
0%!
0~
0y
0u
0n
0i
0e
0`
0[
0W
1Q
1M
1J
1D
1=
09
0O
05
1/
12!
#425000
0!
08
0(
1=!
17!
1/!
1*!
1%!
1~
1y
1u
1n
1i
1e
1`
1[
1W
0Q
0M
0J
0D
0=
19
16
#430000
1!
18
1(
0=!
07!
0/!
0*!
0%!
0~
0y
0u
0n
0i
0e
0`
0[
0W
1Q
0N
1J
1D
1=
17
1O
0:
0/
13!
1@
02!
02
03!
0I
12
1I
#435000
0!
08
0(
1=!
17!
1/!
1*!
1%!
1~
1y
1u
1n
1i
1e
1`
1[
1W
0Q
1N
0J
0D
0=
07
15
#440000
1!
18
1(
0=!
07!
0/!
0*!
0%!
0~
0y
0u
0n
0i
0e
0`
0[
0W
1Q
1M
1J
1D
1=
17
0O
0T
0P
0;
06
05
1/
0<
12!
13!
02
0I
#445000
0!
08
0(
1=!
17!
1/!
1*!
1%!
1~
1y
1u
1n
1i
1e
1`
1[
1W
0Q
0M
0J
0D
0=
07
15!
1U
#450000
1!
18
1(
0=!
16!
0/!
0*!
0%!
0~
0y
0u
0n
0i
0e
0`
0[
1V
0R
0N
0K
1D
0>
09
08!
0X
1S
1O
1L
0H
1?
1:
1@!
03!
12
0U
0/
1T
0W
0V
0B
0@
05!
02
02!
1X
1:!
0G
1'
14!
1B
0C
15!
0:!
1G
12
1C
#455000
0!
08
0(
1=!
06!
1K
0D
1H
1I
#460000
1!
18
1(
0=!
16!
1J
1D
0L
#465000
0!
08
0(
1=!
06!
1/!
1*!
1%!
1~
1y
1u
1n
1i
1e
1`
1[
1W
1R
1N
0J
0D
1>
19
15
#470000
1!
18
1(
0=!
16!
0/!
0*!
0%!
0~
0y
0u
0n
0i
0e
0`
0[
0W
0R
1M
1J
1D
0>
09
0O
05
#475000
0!
08
0(
1=!
06!
1/!
1*!
1%!
1~
1y
1u
1n
1i
1e
1`
1[
1W
1R
0M
0J
0D
1>
19
16
#480000
1!
18
1(
0=!
16!
0/!
0*!
0%!
0~
0y
0u
0n
0i
0e
0`
0[
0W
0R
0N
1J
1D
0>
17
1O
0:
#485000
0!
08
0(
1=!
06!
1/!
1*!
1%!
1~
1y
1u
1n
1i
1e
1`
1[
1W
1R
1N
0J
0D
1>
07
15
#490000
1!
18
1(
0=!
16!
0/!
0*!
0%!
0~
0y
0u
0n
0i
0e
0`
0[
0W
0R
1M
1J
1D
0>
17
0O
06
05
#495000
0!
08
0(
1=!
06!
1/!
1*!
1%!
1~
1y
1u
1n
1i
1e
1`
1[
1W
1R
0M
0J
0D
1>
07
1P
#500000
1!
18
1(
0=!
16!
0/!
0*!
0%!
0~
0y
0u
0n
0i
0e
0`
0[
0W
1Q
0N
1J
1D
0>
09
0S
1O
1:
#505000
0!
08
0(
1=!
06!
1/!
1*!
1%!
1~
1y
1u
1n
1i
1e
1`
1[
1W
0Q
1N
0J
0D
1>
19
15
#510000
1!
18
1(
0=!
16!
0/!
0*!
0%!
0~
0y
0u
0n
0i
0e
0`
0[
0W
1Q
1M
1J
1D
0>
09
0O
05
1/
12!
04!
0B
05!
1:!
0G
02
0I
0H
0C
#515000
0!
08
0(
1=!
06!
1/!
1*!
1%!
1~
1y
1u
1n
1i
1e
1`
1[
1W
0Q
0M
0J
0D
1>
19
1;!
16
#520000
1!
18
1(
1<!
07!
0/!
0*!
0%!
0~
0y
0u
0n
0i
0e
0`
0[
0W
1Q
0N
0K
0E
0>
17
0>!
18!
1O
1L
1F
0:
0@!
09!
11
10
0:!
12
0/
0R
0Q
09
07
1B
0$
1:!
0;!
02!
1S
0P
1:
06
0'
1&
1;!
#525000
0!
08
0(
0<!
17!
1K
1E
1H
1I
#530000
1!
18
1(
1<!
07!
1J
0E
0L
#535000
0!
08
0(
0<!
17!
1/!
1*!
1%!
1~
1y
1u
1n
1i
1e
1`
1[
1W
1R
1N
0J
1E
1>
19
15
#540000
1!
18
1(
1<!
07!
0/!
0*!
0%!
0~
0y
0u
0n
0i
0e
0`
0[
0W
0R
1M
1J
0E
0>
09
0O
05
#545000
0!
08
0(
0<!
17!
1/!
1*!
1%!
1~
1y
1u
1n
1i
1e
1`
1[
1W
1R
0M
0J
1E
1>
19
16
#550000
1!
18
1(
1<!
07!
0/!
0*!
0%!
0~
0y
0u
0n
0i
0e
0`
0[
0W
0R
0N
1J
0E
0>
17
1O
0:
#555000
0!
08
0(
0<!
17!
1/!
1*!
1%!
1~
1y
1u
1n
1i
1e
1`
1[
1W
1R
1N
0J
1E
1>
07
15
#560000
1!
18
1(
1<!
07!
0/!
0*!
0%!
0~
0y
0u
0n
0i
0e
0`
0[
0W
0R
1M
1J
0E
0>
17
0O
06
05
#565000
0!
08
0(
0<!
17!
1/!
1*!
1%!
1~
1y
1u
1n
1i
1e
1`
1[
1W
1R
0M
0J
1E
1>
07
1P
#570000
1!
18
1(
1<!
07!
0/!
0*!
0%!
0~
0y
0u
0n
0i
0e
0`
0[
0W
1Q
0N
1J
0E
0>
09
0S
1O
1:
#575000
0!
08
0(
0<!
17!
1/!
1*!
1%!
1~
1y
1u
1n
1i
1e
1`
1[
1W
0Q
1N
0J
1E
1>
19
15
#580000
1!
18
1(
1<!
07!
0/!
0*!
0%!
0~
0y
0u
0n
0i
0e
0`
0[
0W
1Q
1M
1J
0E
0>
09
0O
05
1/
12!
0B
#585000
0!
08
0(
0<!
17!
1/!
1*!
1%!
1~
1y
1u
1n
1i
1e
1`
1[
1W
0Q
0M
0J
1E
1>
19
16
#590000
1!
18
1(
1<!
07!
0/!
0*!
0%!
0~
0y
0u
0n
0i
0e
0`
0[
0W
1Q
0N
1J
0E
0>
17
1O
0:
0/
1B
02!
#595000
0!
08
0(
0<!
17!
1/!
1*!
1%!
1~
1y
1u
1n
1i
1e
1`
1[
1W
0Q
1N
0J
1E
1>
07
15
#600000
1!
18
1(
1<!
07!
0/!
0*!
0%!
0~
0y
0u
0n
0i
0e
0`
0[
0W
1Q
1M
1J
0E
0>
17
0O
0P
1;
06
05
1/
12!
#605000
0!
08
0(
0<!
17!
1/!
1*!
1%!
1~
1y
1u
1n
1i
1e
1`
1[
1W
0Q
0M
0J
1E
1>
07
1<
#610000
1!
18
1(
1<!
07!
0/!
0*!
0%!
0~
0y
0u
0n
0i
0e
0`
0[
0W
0R
0N
1J
0E
1=
09
1S
1O
0?
1:
0/
02!
#615000
0!
08
0(
0<!
17!
1/!
1*!
1%!
1~
1y
1u
1n
1i
1e
1`
1[
1W
1R
1N
0J
1E
0=
19
15
#620000
1!
18
1(
1<!
07!
0/!
0*!
0%!
0~
0y
0u
0n
0i
0e
0`
0[
0W
0R
1M
1J
0E
1=
09
0O
05
#625000
0!
08
0(
0<!
17!
1/!
1*!
1%!
1~
1y
1u
1n
1i
1e
1`
1[
1W
1R
0M
0J
1E
0=
19
16
#630000
1!
18
1(
1<!
07!
0/!
0*!
0%!
0~
0y
0u
0n
0i
0e
0`
0[
0W
0R
0N
1J
0E
1=
17
1O
0:
1@
#635000
0!
08
0(
0<!
17!
1/!
1*!
1%!
1~
1y
1u
1n
1i
1e
1`
1[
1W
1R
1N
0J
1E
0=
07
15
#640000
1!
18
1(
1<!
07!
0/!
0*!
0%!
0~
0y
0u
0n
0i
0e
0`
0[
0W
0R
1M
1J
0E
1=
17
0O
06
05
#645000
0!
08
0(
0<!
17!
1/!
1*!
1%!
1~
1y
1u
1n
1i
1e
1`
1[
1W
1R
0M
0J
1E
0=
07
1P
#650000
1!
18
1(
1<!
07!
0/!
0*!
0%!
0~
0y
0u
0n
0i
0e
0`
0[
0W
1Q
0N
1J
0E
1=
09
0S
1O
1:
0@
#655000
0!
08
0(
0<!
17!
1/!
1*!
1%!
1~
1y
1u
1n
1i
1e
1`
1[
1W
0Q
1N
0J
1E
0=
19
15
#660000
1!
18
1(
1<!
07!
0/!
0*!
0%!
0~
0y
0u
0n
0i
0e
0`
0[
0W
1Q
1M
1J
0E
1=
09
0O
05
1/
12!
#665000
0!
08
0(
0<!
17!
1/!
1*!
1%!
1~
1y
1u
1n
1i
1e
1`
1[
1W
0Q
0M
0J
1E
0=
19
16
#670000
1!
18
1(
1<!
07!
0/!
0*!
0%!
0~
0y
0u
0n
0i
0e
0`
0[
0W
1Q
0N
1J
0E
1=
17
1O
0:
0/
13!
1@
02!
1A
03!
0A
0H
1H
0I
1I
#675000
0!
08
0(
0<!
17!
1/!
1*!
1%!
1~
1y
1u
1n
1i
1e
1`
1[
1W
0Q
1N
0J
1E
0=
07
15
